Data wrangling with dplyr
…
.column.bg-main3[.content.vtop.center[
.pull.left[.pad1[.font2[

```r
frames %>%
  group_by(test_item, sample_size, n_obs, condition) %>%
  summarise(response = mean(response))
```

```
## # A tibble: 42 x 5
## # Groups:   test_item, sample_size, n_obs [21]
##    test_item sample_size n_obs condition response
##        <dbl> <chr>       <dbl> <chr>        <dbl>
##  1         1 large          12 category      7.60
##  2         1 large          12 property      7.16
##  3         1 medium          6 category      7.32
##  4         1 medium          6 property      6.66
##  5         1 small           2 category      6.07
##  6         1 small           2 property      5.78
##  7         2 large          12 category      7.51
##  8         2 large          12 property      7.20
##  9         2 medium          6 category      7.17
## 10         2 medium          6 property      6.95
## # … with 32 more rows
```
…
.column.bg-main3[.content.vtop.center[
.pull.left[.pad1[.font2[

```r
frames %>%
  group_by(test_item, sample_size, n_obs, condition) %>%
  summarise(response = mean(response)) %>%
  ungroup()
```

```
## # A tibble: 42 x 5
##    test_item sample_size n_obs condition response
##        <dbl> <chr>       <dbl> <chr>        <dbl>
##  1         1 large          12 category      7.60
##  2         1 large          12 property      7.16
##  3         1 medium          6 category      7.32
##  4         1 medium          6 property      6.66
##  5         1 small           2 category      6.07
##  6         1 small           2 property      5.78
##  7         2 large          12 category      7.51
##  8         2 large          12 property      7.20
##  9         2 medium          6 category      7.17
## 10         2 medium          6 property      6.95
## # … with 32 more rows
```
…
