Prettiness with ggplot2
…
class: bg-main1 middle center

.pull.left[.pad1[.font2[

```r
# load data
frames <- read_csv(here("data","frames_ex2.csv"))

# show data
frames
```

```
## # A tibble: 4,725 x 8
##       id gender   age condition sample_size n_obs test_item response
##    <dbl> <chr>  <dbl> <chr>     <chr>       <dbl>     <dbl>    <dbl>
##  1     1 male      36 category  small           2         1        8
##  2     1 male      36 category  small           2         2        7
##  3     1 male      36 category  small           2         3        6
##  4     1 male      36 category  small           2         4        6
##  5     1 male      36 category  small           2         5        5
##  6     1 male      36 category  small           2         6        6
##  7     1 male      36 category  small           2         7        3
##  8     1 male      36 category  medium          6         1        9
##  9     1 male      36 category  medium          6         2        7
## 10     1 male      36 category  medium          6         3        5
## # … with 4,715 more rows
```
…
frames_small
```
]]]
]]

.column.bg-main3[.content.vtop.center[
.pull.left[.pad1[.font2[

```
## # A tibble: 231 x 4
##      age condition sample_size response
##    <dbl> <chr>     <chr>          <dbl>
##  1    20 category  large           3.86
##  2    20 category  medium          4.21
##  3    20 category  small           4.93
##  4    20 property  large           4.37
##  5    20 property  medium          4.31
##  6    20 property  small           3.74
##  7    21 category  large           5.5 
##  8    21 category  medium          5.04
##  9    21 category  small           5.46
## 10    21 property  large           3.71
## # … with 221 more rows
```
…
frames_test
```
]]]
]]

.column.bg-main3[.content.vtop.center[
.pull.left[.pad1[.font2[

```
## # A tibble: 42 x 4
##    test_item condition sample_size response
##        <dbl> <chr>     <chr>          <dbl>
##  1         1 category  large           7.60
##  2         1 category  medium          7.32
##  3         1 category  small           6.07
##  4         1 property  large           7.16
##  5         1 property  medium          6.66
##  6         1 property  small           5.78
##  7         2 category  large           7.51
##  8         2 category  medium          7.17
##  9         2 category  small           6.26
## 10         2 property  large           7.20
## # … with 32 more rows
```
…
frames_mean
```
]]]
]]

.column.bg-main3[.content.vtop.center[
.pad1[.font2[

```
## # A tibble: 42 x 6
## # Groups:   condition, sample_size [6]
##    condition sample_size test_item  resp lower upper
##    <chr>     <chr>           <dbl> <dbl> <dbl> <dbl>
##  1 category  large               1  7.60  7.16  8.04
##  2 category  large               2  7.51  7.14  7.88
##  3 category  large               3  6.39  5.95  6.84
##  4 category  large               4  5.39  4.86  5.93
##  5 category  large               5  4.72  4.13  5.30
##  6 category  large               6  4.43  3.79  5.07
##  7 category  large               7  4.18  3.53  4.82
##  8 category  medium              1  7.32  6.85  7.78
##  9 category  medium              2  7.17  6.80  7.54
## 10 category  medium              3  5.98  5.54  6.42
## # … with 32 more rows
```
…
